…
# taxa downstream from identifier or name
dyntaxa_downstream(dyntaxa_id_from_name("Cervidae"))
# A tibble: 26 x 5
   taxonId scientificName parentNameUsageID taxonRank rankDistance
   <chr>   <chr>          <chr>             <chr>            <dbl>
 1 2002172 Cervidae       2002171           family               0
 2 6007818 Capreolinae    2002172           subfamily            1
 3 6007819 Cervinae       2002172           subfamily            1
 4 6011558 Hydropotinae   2002172           subfamily            1
 5 1001659 Capreolus      6007818           genus                2
 6 1001660 Alces          6007818           genus                2
 7 1001661 Rangifer       6007818           genus                2
 8 1015254 Odocoileus     6007818           genus                2
 9 1001657 Cervus         6007819           genus                2
10 1001658 Dama           6007819           genus                2
# … with 16 more rows

# taxonomic immediate children of an identifier or name
dyntaxa_children(dyntaxa_id_from_name("Carnivora"))
# A tibble: 2 x 5
  taxonId scientificName parentNameUsageID taxonRank rankDistance
  <chr>   <chr>          <chr>             <chr>            <dbl>
1 2002151 Feliformia     3000303           suborder             1
2 2002153 Caniformia     3000303           suborder             1

# taxa downstream of a specific taxon identifier 
# can be filtered at species level (or at other ranks)
dyntaxa_downstream(dyntaxa_id_from_name("Carnivora")) %>% 
  filter(taxonRank == "species")
# A tibble: 26 x 5
   taxonId scientificName           parentNameUsage… taxonRank rankDistance
   <chr>   <chr>                    <chr>            <chr>            <dbl>
 1 100057  Lynx lynx                1001652          species              4
 2 233620  Felis catus              1009403          species              4
 3 6007816 Urva javanica            6037429          species              4
 4 267320  Canis lupus              1001643          species              4
 5 6011549 Canis aureus             1001643          species              4
 6 100005  Vulpes lagopus           1001644          species              4
 7 206026  Vulpes vulpes            1001644          species              4
 8 206028  Nyctereutes procyonoides 1001646          species              4
 9 100145  Ursus arctos             1001642          species              4
10 206029  Mustela erminea          1001647          species              4
# … with 16 more rows
…
# what are synonyms for Sagedia zonata?
dyntaxa_synonyms(dyntaxa_id_from_name("Sagedia zonata"))
# A tibble: 32 x 3
   scientificName         taxonomicStatus nomenclaturalStatus
   <chr>                  <chr>           <chr>              
 1 Aspicilia curvabilis   synonym         valid              
 2 Aspicilia haerjedalica synonym         valid              
 3 Aspicilia inconspicua  synonym         valid              
 4 Aspicilia litorea      synonym         valid              
 5 Aspicilia malmeana     synonym         valid              
 6 Aspicilia obscurascens synonym         valid              
 7 Aspicilia obscurata    synonym         valid              
 8 Aspicilia pleiocarpa   synonym         valid              
 9 Aspicilia rolleana     synonym         valid              
10 Aspicilia subarctica   synonym         valid              
# … with 22 more rows

# more examples for synonyms
dyntaxa_search_all("scientificName:Phyllachora graminis")
# A tibble: 3 x 10
  taxonId scientificName taxonRank scientificNameA… taxonomicStatus
  <chr>   <chr>          <chr>     <chr>            <chr>          
1 5509    Phyllachora g… species   (Pers.:Fr.) Fuc… accepted       
2 urn:ls… Phyllachora g… species   Rehm             synonym        
3 urn:ls… Phyllachora g… species   (Fr.) Sacc.      synonym        
# … with 5 more variables: nomenclaturalStatus <chr>,
#   vernacularName <chr>, language <chr>, title <chr>, creator <chr>
dyntaxa_synonyms(dyntaxa_id_from_name("Phyllachora graminis"))
# A tibble: 21 x 3
   scientificName                  taxonomicStatus nomenclaturalStatus
   <chr>                           <chr>           <chr>              
 1 Sphaeria graminis               synonym         valid              
 2 Sphaeria graminis var. elymorum synonym         valid              
 3 Sphaeria graminis var. poarum   synonym         valid              
 4 Scirrhia poae                   synonym         valid              
 5 Polystigma graminis             synonym         valid              
 6 Phyllachora poae-pratensis      synonym         valid              
 7 Phyllachora poae                synonym         valid              
 8 Phyllachora poae f. alpina      synonym         valid              
 9 Phyllachora melicae             synonym         valid              
10 Phyllachora hordei              synonym         valid              
# … with 11 more rows
…
