Introduction to dyntaxa
…
# what are immediate children of Cervidae?
dyntaxa_children(dyntaxa_id_from_name("Cervidae"))
# A tibble: 3 x 5
  taxonId scientificName parentNameUsageID taxonRank rankDistance
  <chr>   <chr>          <chr>             <chr>            <dbl>
1 6007818 Capreolinae    2002172           subfamily            1
2 6007819 Cervinae       2002172           subfamily            1
3 6011558 Hydropotinae   2002172           subfamily            1

# what are all downstream taxa, not just the children?
dyntaxa_downstream(dyntaxa_id_from_name("Cervidae"))
# A tibble: 26 x 5
   taxonId scientificName parentNameUsageID taxonRank rankDistance
   <chr>   <chr>          <chr>             <chr>            <dbl>
 1 2002172 Cervidae       2002171           family               0
 2 6007818 Capreolinae    2002172           subfamily            1
 3 6007819 Cervinae       2002172           subfamily            1
 4 6011558 Hydropotinae   2002172           subfamily            1
 5 1001659 Capreolus      6007818           genus                2
 6 1001660 Alces          6007818           genus                2
 7 1001661 Rangifer       6007818           genus                2
 8 1015254 Odocoileus     6007818           genus                2
 9 1001657 Cervus         6007819           genus                2
10 1001658 Dama           6007819           genus                2
# … with 16 more rows
…
# so if you wish to return just the distinct set of taxon identifiers and names
dyntaxa_search_all(220018) %>% 
  distinct(taxonId, scientificName)
# A tibble: 1 x 2
  taxonId scientificName        
  <chr>   <chr>                 
1 220018  Campanula persicifolia

# search for hits with vernaculars that contain the string "räv"
# and display identifiers and names only
dyntaxa_search_vernacular("*räv*") %>%
  distinct(taxonId, scientificName, vernacularName)
# A tibble: 36 x 3
   taxonId scientificName             vernacularName     
   <chr>   <chr>                      <chr>              
 1 1001644 Vulpes                     rävar              
 2 1004728 Thamnobryum                rävsvansmossor     
 3 103135  Andrena haemorrhoa         rävsandbi          
 4 105241  Dermestes maculatus        rävänger           
 5 1991    Cortinarius pseudovulpinus liten rävspindling 
 6 2001967 Alopiidae                  rävhajar           
 7 200480  Cheilosia chrysocoma       rävröd örtblomfluga
 8 206026  Vulpes vulpes              räv                
 9 206054  Alopias vulpinus           rävhaj             
10 218711  Gonatium paradoxum         rävdvärgspindel    
# … with 26 more rows
…
# search for hits for identifier 220018
dyntaxa_search_id("220018")
# A tibble: 1 x 5
  taxonId scientificName       taxonRank taxonomicStatus nomenclaturalStat…
  <chr>   <chr>                <chr>     <chr>           <chr>             
1 220018  Campanula persicifo… species   accepted        valid             

# search for hits where title contains "Thomas Karlsson" and discard 
# hits that mention "Databas" in the title
dyntaxa_search_all("title:Thomas Karlsson NOT title:Databas")
# A tibble: 23 x 10
   taxonId scientificName taxonRank scientificNameA… taxonomicStatus
   <chr>   <chr>          <chr>     <chr>            <chr>          
 1 220150  Glebionis mul… species   (Hyl.) Karlsson  accepted       
 2 223192  Rubus suecicus species   H. E. Weber & K… accepted       
 3 223192  Rubus suecicus species   H. E. Weber & K… accepted       
 4 221179  Chamaecytisus… species   (Dippel) Karlss… accepted       
 5 1902    Polygonum avi… subspeci… Karlsson         accepted       
 6 1881    Elymus caninu… variety   (Holmb.) Karlss… accepted       
 7 223973  Polygonum avi… subspeci… (Lange) Karlsson accepted       
 8 224902  Papaver bival… subspeci… (L.) Karlsson    accepted       
 9 223835  Cardamine fle… variety   (Hartm.) Lindm.  accepted       
10 1881    Elymus caninu… variety   (Holmb.) Karlss… accepted       
# … with 13 more rows, and 5 more variables: nomenclaturalStatus <chr>,
#   vernacularName <chr>, language <chr>, title <chr>, creator <chr>
…
# the opposite - given a list of several identifiers, lookup the names
keys <- df$taxonId
tibble(keys, scientificName = map_chr(keys, dyntaxa_name_from_id))
# A tibble: 2 x 2
  keys   scientificName
  <chr>  <chr>         
1 232964 Abies procera 
2 222159 Pinus contorta

# combine classifications from several identifiers
res <- map(keys, dyntaxa_classification)
names(res) <- keys
bind_rows(res, .id = "key")
# A tibble: 26 x 6
   key    taxonId scientificName  parentNameUsageID taxonRank  rankDistance
   <chr>  <chr>   <chr>           <chr>             <chr>             <dbl>
 1 232964 232964  Abies procera   1006412           species               0
 2 232964 1006412 Abies           2002678           genus                 1
 3 232964 2002678 Pinaceae        3000449           family                2
 4 232964 3000449 Pinales         4000138           order                 3
 5 232964 4000138 Pinopsida       6000511           class                 4
 6 232964 6000511 Gymnospermae    6000509           superclass            5
 7 232964 6000509 Spermatophytae  6000508           infraphyl…            6
 8 232964 6000508 Euphyllophytina 6000506           subphylum             7
 9 232964 6000506 Tracheophyta    6000507           phylum                8
10 232964 6000507 Embryophyta     6000543           superphyl…            9
# … with 16 more rows
…
# find synonyms for several identifiers
keys <- c(260606, 5509)
names(keys) <- map_chr(keys, dyntaxa_name_from_id)
map(keys, dyntaxa_synonyms) %>% bind_rows(.id = "acceptedName")
# A tibble: 53 x 4
   acceptedName   scientificName         taxonomicStatus nomenclaturalStat…
   <chr>          <chr>                  <chr>           <chr>             
 1 Sagedia zonata Aspicilia curvabilis   synonym         valid             
 2 Sagedia zonata Aspicilia haerjedalica synonym         valid             
 3 Sagedia zonata Aspicilia inconspicua  synonym         valid             
 4 Sagedia zonata Aspicilia litorea      synonym         valid             
 5 Sagedia zonata Aspicilia malmeana     synonym         valid             
 6 Sagedia zonata Aspicilia obscurascens synonym         valid             
 7 Sagedia zonata Aspicilia obscurata    synonym         valid             
 8 Sagedia zonata Aspicilia pleiocarpa   synonym         valid             
 9 Sagedia zonata Aspicilia rolleana     synonym         valid             
10 Sagedia zonata Aspicilia subarctica   synonym         valid             
# … with 43 more rows
…
